State 39 conflicts: 1 shift/reduce
State 42 conflicts: 1 shift/reduce
State 43 conflicts: 1 shift/reduce
State 44 conflicts: 1 shift/reduce
State 45 conflicts: 1 shift/reduce
State 46 conflicts: 1 shift/reduce
State 47 conflicts: 1 shift/reduce
State 48 conflicts: 7 shift/reduce


Grammar

    0 $accept: program $end

    1 program: stmts

    2 stmts: stmt
    3      | stmts stmt

    4 stmt: expr '\n'
    5     | PRINT expr
    6     | PRINT STR
    7     | PRINT_NEWLINE VAR
    8     | READ VAR
    9     | IF expr stmt ENDIF
   10     | IF expr stmt ELSE stmt ENDIF
   11     | WHILE expr stmt
   12     | '\n'
   13     | '{' stmts '}'
   14     | FOR VAR '=' expr TO expr DO stmt

   15 expr: INT
   16     | VAR
   17     | VAR '=' expr
   18     | expr '+' expr
   19     | expr '-' expr
   20     | expr '*' expr
   21     | expr '/' expr
   22     | expr '>' expr
   23     | expr '<' expr
   24     | expr '_' expr
   25     | '(' expr ')'


Terminals, with rules where they appear

$end (0) 0
'\n' (10) 4 12
'(' (40) 25
')' (41) 25
'*' (42) 20
'+' (43) 18
'-' (45) 19
'/' (47) 21
'<' (60) 23
'=' (61) 14 17
'>' (62) 22
'_' (95) 24
'{' (123) 13
'}' (125) 13
error (256)
WHILE (258) 11
READ (259) 8
PRINT (260) 5 6
IF (261) 9 10
ELSE (262) 10
ENDIF (263) 9 10
TO (264) 14
DO (265) 14
PRINT_NEWLINE (266) 7
FOR (267) 14
INT (268) 15
VAR (269) 7 8 14 16 17
STR (270) 6


Nonterminals, with rules where they appear

$accept (29)
    on left: 0
program (30)
    on left: 1, on right: 0
stmts (31)
    on left: 2 3, on right: 1 3 13
stmt (32)
    on left: 4 5 6 7 8 9 10 11 12 13 14, on right: 2 3 9 10 11 14
expr (33)
    on left: 15 16 17 18 19 20 21 22 23 24 25, on right: 4 5 9 10 11
    14 17 18 19 20 21 22 23 24 25


state 0

    0 $accept: . program $end
    1 program: . stmts
    2 stmts: . stmt
    3      | . stmts stmt
    4 stmt: . expr '\n'
    5     | . PRINT expr
    6     | . PRINT STR
    7     | . PRINT_NEWLINE VAR
    8     | . READ VAR
    9     | . IF expr stmt ENDIF
   10     | . IF expr stmt ELSE stmt ENDIF
   11     | . WHILE expr stmt
   12     | . '\n'
   13     | . '{' stmts '}'
   14     | . FOR VAR '=' expr TO expr DO stmt
   15 expr: . INT
   16     | . VAR
   17     | . VAR '=' expr
   18     | . expr '+' expr
   19     | . expr '-' expr
   20     | . expr '*' expr
   21     | . expr '/' expr
   22     | . expr '>' expr
   23     | . expr '<' expr
   24     | . expr '_' expr
   25     | . '(' expr ')'

    WHILE          shift, and go to state 1
    READ           shift, and go to state 2
    PRINT          shift, and go to state 3
    IF             shift, and go to state 4
    PRINT_NEWLINE  shift, and go to state 5
    FOR            shift, and go to state 6
    INT            shift, and go to state 7
    VAR            shift, and go to state 8
    '\n'           shift, and go to state 9
    '{'            shift, and go to state 10
    '('            shift, and go to state 11

    program  go to state 12
    stmts    go to state 13
    stmt     go to state 14
    expr     go to state 15


state 1

   11 stmt: WHILE . expr stmt
   15 expr: . INT
   16     | . VAR
   17     | . VAR '=' expr
   18     | . expr '+' expr
   19     | . expr '-' expr
   20     | . expr '*' expr
   21     | . expr '/' expr
   22     | . expr '>' expr
   23     | . expr '<' expr
   24     | . expr '_' expr
   25     | . '(' expr ')'

    INT  shift, and go to state 7
    VAR  shift, and go to state 8
    '('  shift, and go to state 11

    expr  go to state 16


state 2

    8 stmt: READ . VAR

    VAR  shift, and go to state 17


state 3

    5 stmt: PRINT . expr
    6     | PRINT . STR
   15 expr: . INT
   16     | . VAR
   17     | . VAR '=' expr
   18     | . expr '+' expr
   19     | . expr '-' expr
   20     | . expr '*' expr
   21     | . expr '/' expr
   22     | . expr '>' expr
   23     | . expr '<' expr
   24     | . expr '_' expr
   25     | . '(' expr ')'

    INT  shift, and go to state 7
    VAR  shift, and go to state 8
    STR  shift, and go to state 18
    '('  shift, and go to state 11

    expr  go to state 19


state 4

    9 stmt: IF . expr stmt ENDIF
   10     | IF . expr stmt ELSE stmt ENDIF
   15 expr: . INT
   16     | . VAR
   17     | . VAR '=' expr
   18     | . expr '+' expr
   19     | . expr '-' expr
   20     | . expr '*' expr
   21     | . expr '/' expr
   22     | . expr '>' expr
   23     | . expr '<' expr
   24     | . expr '_' expr
   25     | . '(' expr ')'

    INT  shift, and go to state 7
    VAR  shift, and go to state 8
    '('  shift, and go to state 11

    expr  go to state 20


state 5

    7 stmt: PRINT_NEWLINE . VAR

    VAR  shift, and go to state 21


state 6

   14 stmt: FOR . VAR '=' expr TO expr DO stmt

    VAR  shift, and go to state 22


state 7

   15 expr: INT .

    $default  reduce using rule 15 (expr)


state 8

   16 expr: VAR .  [$end, WHILE, READ, PRINT, IF, ELSE, ENDIF, TO, DO, PRINT_NEWLINE, FOR, INT, VAR, '<', '>', '-', '+', '/', '*', '\n', '{', '}', '_', '(', ')']
   17     | VAR . '=' expr

    '='  shift, and go to state 23

    $default  reduce using rule 16 (expr)


state 9

   12 stmt: '\n' .

    $default  reduce using rule 12 (stmt)


state 10

    2 stmts: . stmt
    3      | . stmts stmt
    4 stmt: . expr '\n'
    5     | . PRINT expr
    6     | . PRINT STR
    7     | . PRINT_NEWLINE VAR
    8     | . READ VAR
    9     | . IF expr stmt ENDIF
   10     | . IF expr stmt ELSE stmt ENDIF
   11     | . WHILE expr stmt
   12     | . '\n'
   13     | . '{' stmts '}'
   13     | '{' . stmts '}'
   14     | . FOR VAR '=' expr TO expr DO stmt
   15 expr: . INT
   16     | . VAR
   17     | . VAR '=' expr
   18     | . expr '+' expr
   19     | . expr '-' expr
   20     | . expr '*' expr
   21     | . expr '/' expr
   22     | . expr '>' expr
   23     | . expr '<' expr
   24     | . expr '_' expr
   25     | . '(' expr ')'

    WHILE          shift, and go to state 1
    READ           shift, and go to state 2
    PRINT          shift, and go to state 3
    IF             shift, and go to state 4
    PRINT_NEWLINE  shift, and go to state 5
    FOR            shift, and go to state 6
    INT            shift, and go to state 7
    VAR            shift, and go to state 8
    '\n'           shift, and go to state 9
    '{'            shift, and go to state 10
    '('            shift, and go to state 11

    stmts  go to state 24
    stmt   go to state 14
    expr   go to state 15


state 11

   15 expr: . INT
   16     | . VAR
   17     | . VAR '=' expr
   18     | . expr '+' expr
   19     | . expr '-' expr
   20     | . expr '*' expr
   21     | . expr '/' expr
   22     | . expr '>' expr
   23     | . expr '<' expr
   24     | . expr '_' expr
   25     | . '(' expr ')'
   25     | '(' . expr ')'

    INT  shift, and go to state 7
    VAR  shift, and go to state 8
    '('  shift, and go to state 11

    expr  go to state 25


state 12

    0 $accept: program . $end

    $end  shift, and go to state 26


state 13

    1 program: stmts .  [$end]
    3 stmts: stmts . stmt
    4 stmt: . expr '\n'
    5     | . PRINT expr
    6     | . PRINT STR
    7     | . PRINT_NEWLINE VAR
    8     | . READ VAR
    9     | . IF expr stmt ENDIF
   10     | . IF expr stmt ELSE stmt ENDIF
   11     | . WHILE expr stmt
   12     | . '\n'
   13     | . '{' stmts '}'
   14     | . FOR VAR '=' expr TO expr DO stmt
   15 expr: . INT
   16     | . VAR
   17     | . VAR '=' expr
   18     | . expr '+' expr
   19     | . expr '-' expr
   20     | . expr '*' expr
   21     | . expr '/' expr
   22     | . expr '>' expr
   23     | . expr '<' expr
   24     | . expr '_' expr
   25     | . '(' expr ')'

    WHILE          shift, and go to state 1
    READ           shift, and go to state 2
    PRINT          shift, and go to state 3
    IF             shift, and go to state 4
    PRINT_NEWLINE  shift, and go to state 5
    FOR            shift, and go to state 6
    INT            shift, and go to state 7
    VAR            shift, and go to state 8
    '\n'           shift, and go to state 9
    '{'            shift, and go to state 10
    '('            shift, and go to state 11

    $default  reduce using rule 1 (program)

    stmt  go to state 27
    expr  go to state 15


state 14

    2 stmts: stmt .

    $default  reduce using rule 2 (stmts)


state 15

    4 stmt: expr . '\n'
   18 expr: expr . '+' expr
   19     | expr . '-' expr
   20     | expr . '*' expr
   21     | expr . '/' expr
   22     | expr . '>' expr
   23     | expr . '<' expr
   24     | expr . '_' expr

    '<'   shift, and go to state 28
    '>'   shift, and go to state 29
    '-'   shift, and go to state 30
    '+'   shift, and go to state 31
    '/'   shift, and go to state 32
    '*'   shift, and go to state 33
    '\n'  shift, and go to state 34
    '_'   shift, and go to state 35


state 16

    4 stmt: . expr '\n'
    5     | . PRINT expr
    6     | . PRINT STR
    7     | . PRINT_NEWLINE VAR
    8     | . READ VAR
    9     | . IF expr stmt ENDIF
   10     | . IF expr stmt ELSE stmt ENDIF
   11     | . WHILE expr stmt
   11     | WHILE expr . stmt
   12     | . '\n'
   13     | . '{' stmts '}'
   14     | . FOR VAR '=' expr TO expr DO stmt
   15 expr: . INT
   16     | . VAR
   17     | . VAR '=' expr
   18     | . expr '+' expr
   18     | expr . '+' expr
   19     | . expr '-' expr
   19     | expr . '-' expr
   20     | . expr '*' expr
   20     | expr . '*' expr
   21     | . expr '/' expr
   21     | expr . '/' expr
   22     | . expr '>' expr
   22     | expr . '>' expr
   23     | . expr '<' expr
   23     | expr . '<' expr
   24     | . expr '_' expr
   24     | expr . '_' expr
   25     | . '(' expr ')'

    WHILE          shift, and go to state 1
    READ           shift, and go to state 2
    PRINT          shift, and go to state 3
    IF             shift, and go to state 4
    PRINT_NEWLINE  shift, and go to state 5
    FOR            shift, and go to state 6
    INT            shift, and go to state 7
    VAR            shift, and go to state 8
    '<'            shift, and go to state 28
    '>'            shift, and go to state 29
    '-'            shift, and go to state 30
    '+'            shift, and go to state 31
    '/'            shift, and go to state 32
    '*'            shift, and go to state 33
    '\n'           shift, and go to state 9
    '{'            shift, and go to state 10
    '_'            shift, and go to state 35
    '('            shift, and go to state 11

    stmt  go to state 36
    expr  go to state 15


state 17

    8 stmt: READ VAR .

    $default  reduce using rule 8 (stmt)


state 18

    6 stmt: PRINT STR .

    $default  reduce using rule 6 (stmt)


state 19

    5 stmt: PRINT expr .  [$end, WHILE, READ, PRINT, IF, ELSE, ENDIF, PRINT_NEWLINE, FOR, INT, VAR, '\n', '{', '}', '(']
   18 expr: expr . '+' expr
   19     | expr . '-' expr
   20     | expr . '*' expr
   21     | expr . '/' expr
   22     | expr . '>' expr
   23     | expr . '<' expr
   24     | expr . '_' expr

    '<'  shift, and go to state 28
    '>'  shift, and go to state 29
    '-'  shift, and go to state 30
    '+'  shift, and go to state 31
    '/'  shift, and go to state 32
    '*'  shift, and go to state 33
    '_'  shift, and go to state 35

    $default  reduce using rule 5 (stmt)


state 20

    4 stmt: . expr '\n'
    5     | . PRINT expr
    6     | . PRINT STR
    7     | . PRINT_NEWLINE VAR
    8     | . READ VAR
    9     | . IF expr stmt ENDIF
    9     | IF expr . stmt ENDIF
   10     | . IF expr stmt ELSE stmt ENDIF
   10     | IF expr . stmt ELSE stmt ENDIF
   11     | . WHILE expr stmt
   12     | . '\n'
   13     | . '{' stmts '}'
   14     | . FOR VAR '=' expr TO expr DO stmt
   15 expr: . INT
   16     | . VAR
   17     | . VAR '=' expr
   18     | . expr '+' expr
   18     | expr . '+' expr
   19     | . expr '-' expr
   19     | expr . '-' expr
   20     | . expr '*' expr
   20     | expr . '*' expr
   21     | . expr '/' expr
   21     | expr . '/' expr
   22     | . expr '>' expr
   22     | expr . '>' expr
   23     | . expr '<' expr
   23     | expr . '<' expr
   24     | . expr '_' expr
   24     | expr . '_' expr
   25     | . '(' expr ')'

    WHILE          shift, and go to state 1
    READ           shift, and go to state 2
    PRINT          shift, and go to state 3
    IF             shift, and go to state 4
    PRINT_NEWLINE  shift, and go to state 5
    FOR            shift, and go to state 6
    INT            shift, and go to state 7
    VAR            shift, and go to state 8
    '<'            shift, and go to state 28
    '>'            shift, and go to state 29
    '-'            shift, and go to state 30
    '+'            shift, and go to state 31
    '/'            shift, and go to state 32
    '*'            shift, and go to state 33
    '\n'           shift, and go to state 9
    '{'            shift, and go to state 10
    '_'            shift, and go to state 35
    '('            shift, and go to state 11

    stmt  go to state 37
    expr  go to state 15


state 21

    7 stmt: PRINT_NEWLINE VAR .

    $default  reduce using rule 7 (stmt)


state 22

   14 stmt: FOR VAR . '=' expr TO expr DO stmt

    '='  shift, and go to state 38


state 23

   15 expr: . INT
   16     | . VAR
   17     | . VAR '=' expr
   17     | VAR '=' . expr
   18     | . expr '+' expr
   19     | . expr '-' expr
   20     | . expr '*' expr
   21     | . expr '/' expr
   22     | . expr '>' expr
   23     | . expr '<' expr
   24     | . expr '_' expr
   25     | . '(' expr ')'

    INT  shift, and go to state 7
    VAR  shift, and go to state 8
    '('  shift, and go to state 11

    expr  go to state 39


state 24

    3 stmts: stmts . stmt
    4 stmt: . expr '\n'
    5     | . PRINT expr
    6     | . PRINT STR
    7     | . PRINT_NEWLINE VAR
    8     | . READ VAR
    9     | . IF expr stmt ENDIF
   10     | . IF expr stmt ELSE stmt ENDIF
   11     | . WHILE expr stmt
   12     | . '\n'
   13     | . '{' stmts '}'
   13     | '{' stmts . '}'
   14     | . FOR VAR '=' expr TO expr DO stmt
   15 expr: . INT
   16     | . VAR
   17     | . VAR '=' expr
   18     | . expr '+' expr
   19     | . expr '-' expr
   20     | . expr '*' expr
   21     | . expr '/' expr
   22     | . expr '>' expr
   23     | . expr '<' expr
   24     | . expr '_' expr
   25     | . '(' expr ')'

    WHILE          shift, and go to state 1
    READ           shift, and go to state 2
    PRINT          shift, and go to state 3
    IF             shift, and go to state 4
    PRINT_NEWLINE  shift, and go to state 5
    FOR            shift, and go to state 6
    INT            shift, and go to state 7
    VAR            shift, and go to state 8
    '\n'           shift, and go to state 9
    '{'            shift, and go to state 10
    '}'            shift, and go to state 40
    '('            shift, and go to state 11

    stmt  go to state 27
    expr  go to state 15


state 25

   18 expr: expr . '+' expr
   19     | expr . '-' expr
   20     | expr . '*' expr
   21     | expr . '/' expr
   22     | expr . '>' expr
   23     | expr . '<' expr
   24     | expr . '_' expr
   25     | '(' expr . ')'

    '<'  shift, and go to state 28
    '>'  shift, and go to state 29
    '-'  shift, and go to state 30
    '+'  shift, and go to state 31
    '/'  shift, and go to state 32
    '*'  shift, and go to state 33
    '_'  shift, and go to state 35
    ')'  shift, and go to state 41


state 26

    0 $accept: program $end .

    $default  accept


state 27

    3 stmts: stmts stmt .

    $default  reduce using rule 3 (stmts)


state 28

   15 expr: . INT
   16     | . VAR
   17     | . VAR '=' expr
   18     | . expr '+' expr
   19     | . expr '-' expr
   20     | . expr '*' expr
   21     | . expr '/' expr
   22     | . expr '>' expr
   23     | . expr '<' expr
   23     | expr '<' . expr
   24     | . expr '_' expr
   25     | . '(' expr ')'

    INT  shift, and go to state 7
    VAR  shift, and go to state 8
    '('  shift, and go to state 11

    expr  go to state 42


state 29

   15 expr: . INT
   16     | . VAR
   17     | . VAR '=' expr
   18     | . expr '+' expr
   19     | . expr '-' expr
   20     | . expr '*' expr
   21     | . expr '/' expr
   22     | . expr '>' expr
   22     | expr '>' . expr
   23     | . expr '<' expr
   24     | . expr '_' expr
   25     | . '(' expr ')'

    INT  shift, and go to state 7
    VAR  shift, and go to state 8
    '('  shift, and go to state 11

    expr  go to state 43


state 30

   15 expr: . INT
   16     | . VAR
   17     | . VAR '=' expr
   18     | . expr '+' expr
   19     | . expr '-' expr
   19     | expr '-' . expr
   20     | . expr '*' expr
   21     | . expr '/' expr
   22     | . expr '>' expr
   23     | . expr '<' expr
   24     | . expr '_' expr
   25     | . '(' expr ')'

    INT  shift, and go to state 7
    VAR  shift, and go to state 8
    '('  shift, and go to state 11

    expr  go to state 44


state 31

   15 expr: . INT
   16     | . VAR
   17     | . VAR '=' expr
   18     | . expr '+' expr
   18     | expr '+' . expr
   19     | . expr '-' expr
   20     | . expr '*' expr
   21     | . expr '/' expr
   22     | . expr '>' expr
   23     | . expr '<' expr
   24     | . expr '_' expr
   25     | . '(' expr ')'

    INT  shift, and go to state 7
    VAR  shift, and go to state 8
    '('  shift, and go to state 11

    expr  go to state 45


state 32

   15 expr: . INT
   16     | . VAR
   17     | . VAR '=' expr
   18     | . expr '+' expr
   19     | . expr '-' expr
   20     | . expr '*' expr
   21     | . expr '/' expr
   21     | expr '/' . expr
   22     | . expr '>' expr
   23     | . expr '<' expr
   24     | . expr '_' expr
   25     | . '(' expr ')'

    INT  shift, and go to state 7
    VAR  shift, and go to state 8
    '('  shift, and go to state 11

    expr  go to state 46


state 33

   15 expr: . INT
   16     | . VAR
   17     | . VAR '=' expr
   18     | . expr '+' expr
   19     | . expr '-' expr
   20     | . expr '*' expr
   20     | expr '*' . expr
   21     | . expr '/' expr
   22     | . expr '>' expr
   23     | . expr '<' expr
   24     | . expr '_' expr
   25     | . '(' expr ')'

    INT  shift, and go to state 7
    VAR  shift, and go to state 8
    '('  shift, and go to state 11

    expr  go to state 47


state 34

    4 stmt: expr '\n' .

    $default  reduce using rule 4 (stmt)


state 35

   15 expr: . INT
   16     | . VAR
   17     | . VAR '=' expr
   18     | . expr '+' expr
   19     | . expr '-' expr
   20     | . expr '*' expr
   21     | . expr '/' expr
   22     | . expr '>' expr
   23     | . expr '<' expr
   24     | . expr '_' expr
   24     | expr '_' . expr
   25     | . '(' expr ')'

    INT  shift, and go to state 7
    VAR  shift, and go to state 8
    '('  shift, and go to state 11

    expr  go to state 48


state 36

   11 stmt: WHILE expr stmt .

    $default  reduce using rule 11 (stmt)


state 37

    9 stmt: IF expr stmt . ENDIF
   10     | IF expr stmt . ELSE stmt ENDIF

    ELSE   shift, and go to state 49
    ENDIF  shift, and go to state 50


state 38

   14 stmt: FOR VAR '=' . expr TO expr DO stmt
   15 expr: . INT
   16     | . VAR
   17     | . VAR '=' expr
   18     | . expr '+' expr
   19     | . expr '-' expr
   20     | . expr '*' expr
   21     | . expr '/' expr
   22     | . expr '>' expr
   23     | . expr '<' expr
   24     | . expr '_' expr
   25     | . '(' expr ')'

    INT  shift, and go to state 7
    VAR  shift, and go to state 8
    '('  shift, and go to state 11

    expr  go to state 51


state 39

   17 expr: VAR '=' expr .  [$end, WHILE, READ, PRINT, IF, ELSE, ENDIF, TO, DO, PRINT_NEWLINE, FOR, INT, VAR, '\n', '{', '}', '_', '(', ')']
   18     | expr . '+' expr
   19     | expr . '-' expr
   20     | expr . '*' expr
   21     | expr . '/' expr
   22     | expr . '>' expr
   23     | expr . '<' expr
   24     | expr . '_' expr

    '<'  shift, and go to state 28
    '>'  shift, and go to state 29
    '-'  shift, and go to state 30
    '+'  shift, and go to state 31
    '/'  shift, and go to state 32
    '*'  shift, and go to state 33
    '_'  shift, and go to state 35

    '_'       [reduce using rule 17 (expr)]
    $default  reduce using rule 17 (expr)

    Conflict between rule 17 and token '<' resolved as shift ('=' < '<').
    Conflict between rule 17 and token '>' resolved as shift ('=' < '>').
    Conflict between rule 17 and token '-' resolved as shift ('=' < '-').
    Conflict between rule 17 and token '+' resolved as shift ('=' < '+').
    Conflict between rule 17 and token '/' resolved as shift ('=' < '/').
    Conflict between rule 17 and token '*' resolved as shift ('=' < '*').


state 40

   13 stmt: '{' stmts '}' .

    $default  reduce using rule 13 (stmt)


state 41

   25 expr: '(' expr ')' .

    $default  reduce using rule 25 (expr)


state 42

   18 expr: expr . '+' expr
   19     | expr . '-' expr
   20     | expr . '*' expr
   21     | expr . '/' expr
   22     | expr . '>' expr
   23     | expr . '<' expr  [$end, WHILE, READ, PRINT, IF, ELSE, ENDIF, TO, DO, PRINT_NEWLINE, FOR, INT, VAR, '<', '>', '\n', '{', '}', '_', '(', ')']
   23     | expr '<' expr .  [$end, WHILE, READ, PRINT, IF, ELSE, ENDIF, TO, DO, PRINT_NEWLINE, FOR, INT, VAR, '<', '>', '\n', '{', '}', '_', '(', ')']
   24     | expr . '_' expr

    '-'  shift, and go to state 30
    '+'  shift, and go to state 31
    '/'  shift, and go to state 32
    '*'  shift, and go to state 33
    '_'  shift, and go to state 35

    '_'       [reduce using rule 23 (expr)]
    $default  reduce using rule 23 (expr)

    Conflict between rule 23 and token '<' resolved as reduce (%left '<').
    Conflict between rule 23 and token '>' resolved as reduce (%left '>').
    Conflict between rule 23 and token '-' resolved as shift ('<' < '-').
    Conflict between rule 23 and token '+' resolved as shift ('<' < '+').
    Conflict between rule 23 and token '/' resolved as shift ('<' < '/').
    Conflict between rule 23 and token '*' resolved as shift ('<' < '*').


state 43

   18 expr: expr . '+' expr
   19     | expr . '-' expr
   20     | expr . '*' expr
   21     | expr . '/' expr
   22     | expr . '>' expr  [$end, WHILE, READ, PRINT, IF, ELSE, ENDIF, TO, DO, PRINT_NEWLINE, FOR, INT, VAR, '<', '>', '\n', '{', '}', '_', '(', ')']
   22     | expr '>' expr .  [$end, WHILE, READ, PRINT, IF, ELSE, ENDIF, TO, DO, PRINT_NEWLINE, FOR, INT, VAR, '<', '>', '\n', '{', '}', '_', '(', ')']
   23     | expr . '<' expr
   24     | expr . '_' expr

    '-'  shift, and go to state 30
    '+'  shift, and go to state 31
    '/'  shift, and go to state 32
    '*'  shift, and go to state 33
    '_'  shift, and go to state 35

    '_'       [reduce using rule 22 (expr)]
    $default  reduce using rule 22 (expr)

    Conflict between rule 22 and token '<' resolved as reduce (%left '<').
    Conflict between rule 22 and token '>' resolved as reduce (%left '>').
    Conflict between rule 22 and token '-' resolved as shift ('>' < '-').
    Conflict between rule 22 and token '+' resolved as shift ('>' < '+').
    Conflict between rule 22 and token '/' resolved as shift ('>' < '/').
    Conflict between rule 22 and token '*' resolved as shift ('>' < '*').


state 44

   18 expr: expr . '+' expr
   19     | expr . '-' expr  [$end, WHILE, READ, PRINT, IF, ELSE, ENDIF, TO, DO, PRINT_NEWLINE, FOR, INT, VAR, '<', '>', '-', '+', '\n', '{', '}', '_', '(', ')']
   19     | expr '-' expr .  [$end, WHILE, READ, PRINT, IF, ELSE, ENDIF, TO, DO, PRINT_NEWLINE, FOR, INT, VAR, '<', '>', '-', '+', '\n', '{', '}', '_', '(', ')']
   20     | expr . '*' expr
   21     | expr . '/' expr
   22     | expr . '>' expr
   23     | expr . '<' expr
   24     | expr . '_' expr

    '/'  shift, and go to state 32
    '*'  shift, and go to state 33
    '_'  shift, and go to state 35

    '_'       [reduce using rule 19 (expr)]
    $default  reduce using rule 19 (expr)

    Conflict between rule 19 and token '<' resolved as reduce ('<' < '-').
    Conflict between rule 19 and token '>' resolved as reduce ('>' < '-').
    Conflict between rule 19 and token '-' resolved as reduce (%left '-').
    Conflict between rule 19 and token '+' resolved as reduce (%left '+').
    Conflict between rule 19 and token '/' resolved as shift ('-' < '/').
    Conflict between rule 19 and token '*' resolved as shift ('-' < '*').


state 45

   18 expr: expr . '+' expr  [$end, WHILE, READ, PRINT, IF, ELSE, ENDIF, TO, DO, PRINT_NEWLINE, FOR, INT, VAR, '<', '>', '-', '+', '\n', '{', '}', '_', '(', ')']
   18     | expr '+' expr .  [$end, WHILE, READ, PRINT, IF, ELSE, ENDIF, TO, DO, PRINT_NEWLINE, FOR, INT, VAR, '<', '>', '-', '+', '\n', '{', '}', '_', '(', ')']
   19     | expr . '-' expr
   20     | expr . '*' expr
   21     | expr . '/' expr
   22     | expr . '>' expr
   23     | expr . '<' expr
   24     | expr . '_' expr

    '/'  shift, and go to state 32
    '*'  shift, and go to state 33
    '_'  shift, and go to state 35

    '_'       [reduce using rule 18 (expr)]
    $default  reduce using rule 18 (expr)

    Conflict between rule 18 and token '<' resolved as reduce ('<' < '+').
    Conflict between rule 18 and token '>' resolved as reduce ('>' < '+').
    Conflict between rule 18 and token '-' resolved as reduce (%left '-').
    Conflict between rule 18 and token '+' resolved as reduce (%left '+').
    Conflict between rule 18 and token '/' resolved as shift ('+' < '/').
    Conflict between rule 18 and token '*' resolved as shift ('+' < '*').


state 46

   18 expr: expr . '+' expr
   19     | expr . '-' expr
   20     | expr . '*' expr
   21     | expr . '/' expr  [$end, WHILE, READ, PRINT, IF, ELSE, ENDIF, TO, DO, PRINT_NEWLINE, FOR, INT, VAR, '<', '>', '-', '+', '/', '*', '\n', '{', '}', '_', '(', ')']
   21     | expr '/' expr .  [$end, WHILE, READ, PRINT, IF, ELSE, ENDIF, TO, DO, PRINT_NEWLINE, FOR, INT, VAR, '<', '>', '-', '+', '/', '*', '\n', '{', '}', '_', '(', ')']
   22     | expr . '>' expr
   23     | expr . '<' expr
   24     | expr . '_' expr

    '_'  shift, and go to state 35

    '_'       [reduce using rule 21 (expr)]
    $default  reduce using rule 21 (expr)

    Conflict between rule 21 and token '<' resolved as reduce ('<' < '/').
    Conflict between rule 21 and token '>' resolved as reduce ('>' < '/').
    Conflict between rule 21 and token '-' resolved as reduce ('-' < '/').
    Conflict between rule 21 and token '+' resolved as reduce ('+' < '/').
    Conflict between rule 21 and token '/' resolved as reduce (%left '/').
    Conflict between rule 21 and token '*' resolved as reduce (%left '*').


state 47

   18 expr: expr . '+' expr
   19     | expr . '-' expr
   20     | expr . '*' expr  [$end, WHILE, READ, PRINT, IF, ELSE, ENDIF, TO, DO, PRINT_NEWLINE, FOR, INT, VAR, '<', '>', '-', '+', '/', '*', '\n', '{', '}', '_', '(', ')']
   20     | expr '*' expr .  [$end, WHILE, READ, PRINT, IF, ELSE, ENDIF, TO, DO, PRINT_NEWLINE, FOR, INT, VAR, '<', '>', '-', '+', '/', '*', '\n', '{', '}', '_', '(', ')']
   21     | expr . '/' expr
   22     | expr . '>' expr
   23     | expr . '<' expr
   24     | expr . '_' expr

    '_'  shift, and go to state 35

    '_'       [reduce using rule 20 (expr)]
    $default  reduce using rule 20 (expr)

    Conflict between rule 20 and token '<' resolved as reduce ('<' < '*').
    Conflict between rule 20 and token '>' resolved as reduce ('>' < '*').
    Conflict between rule 20 and token '-' resolved as reduce ('-' < '*').
    Conflict between rule 20 and token '+' resolved as reduce ('+' < '*').
    Conflict between rule 20 and token '/' resolved as reduce (%left '/').
    Conflict between rule 20 and token '*' resolved as reduce (%left '*').


state 48

   18 expr: expr . '+' expr
   19     | expr . '-' expr
   20     | expr . '*' expr
   21     | expr . '/' expr
   22     | expr . '>' expr
   23     | expr . '<' expr
   24     | expr . '_' expr  [$end, WHILE, READ, PRINT, IF, ELSE, ENDIF, TO, DO, PRINT_NEWLINE, FOR, INT, VAR, '<', '>', '-', '+', '/', '*', '\n', '{', '}', '_', '(', ')']
   24     | expr '_' expr .  [$end, WHILE, READ, PRINT, IF, ELSE, ENDIF, TO, DO, PRINT_NEWLINE, FOR, INT, VAR, '<', '>', '-', '+', '/', '*', '\n', '{', '}', '_', '(', ')']

    '<'  shift, and go to state 28
    '>'  shift, and go to state 29
    '-'  shift, and go to state 30
    '+'  shift, and go to state 31
    '/'  shift, and go to state 32
    '*'  shift, and go to state 33
    '_'  shift, and go to state 35

    '<'       [reduce using rule 24 (expr)]
    '>'       [reduce using rule 24 (expr)]
    '-'       [reduce using rule 24 (expr)]
    '+'       [reduce using rule 24 (expr)]
    '/'       [reduce using rule 24 (expr)]
    '*'       [reduce using rule 24 (expr)]
    '_'       [reduce using rule 24 (expr)]
    $default  reduce using rule 24 (expr)


state 49

    4 stmt: . expr '\n'
    5     | . PRINT expr
    6     | . PRINT STR
    7     | . PRINT_NEWLINE VAR
    8     | . READ VAR
    9     | . IF expr stmt ENDIF
   10     | . IF expr stmt ELSE stmt ENDIF
   10     | IF expr stmt ELSE . stmt ENDIF
   11     | . WHILE expr stmt
   12     | . '\n'
   13     | . '{' stmts '}'
   14     | . FOR VAR '=' expr TO expr DO stmt
   15 expr: . INT
   16     | . VAR
   17     | . VAR '=' expr
   18     | . expr '+' expr
   19     | . expr '-' expr
   20     | . expr '*' expr
   21     | . expr '/' expr
   22     | . expr '>' expr
   23     | . expr '<' expr
   24     | . expr '_' expr
   25     | . '(' expr ')'

    WHILE          shift, and go to state 1
    READ           shift, and go to state 2
    PRINT          shift, and go to state 3
    IF             shift, and go to state 4
    PRINT_NEWLINE  shift, and go to state 5
    FOR            shift, and go to state 6
    INT            shift, and go to state 7
    VAR            shift, and go to state 8
    '\n'           shift, and go to state 9
    '{'            shift, and go to state 10
    '('            shift, and go to state 11

    stmt  go to state 52
    expr  go to state 15


state 50

    9 stmt: IF expr stmt ENDIF .

    $default  reduce using rule 9 (stmt)


state 51

   14 stmt: FOR VAR '=' expr . TO expr DO stmt
   18 expr: expr . '+' expr
   19     | expr . '-' expr
   20     | expr . '*' expr
   21     | expr . '/' expr
   22     | expr . '>' expr
   23     | expr . '<' expr
   24     | expr . '_' expr

    TO   shift, and go to state 53
    '<'  shift, and go to state 28
    '>'  shift, and go to state 29
    '-'  shift, and go to state 30
    '+'  shift, and go to state 31
    '/'  shift, and go to state 32
    '*'  shift, and go to state 33
    '_'  shift, and go to state 35


state 52

   10 stmt: IF expr stmt ELSE stmt . ENDIF

    ENDIF  shift, and go to state 54


state 53

   14 stmt: FOR VAR '=' expr TO . expr DO stmt
   15 expr: . INT
   16     | . VAR
   17     | . VAR '=' expr
   18     | . expr '+' expr
   19     | . expr '-' expr
   20     | . expr '*' expr
   21     | . expr '/' expr
   22     | . expr '>' expr
   23     | . expr '<' expr
   24     | . expr '_' expr
   25     | . '(' expr ')'

    INT  shift, and go to state 7
    VAR  shift, and go to state 8
    '('  shift, and go to state 11

    expr  go to state 55


state 54

   10 stmt: IF expr stmt ELSE stmt ENDIF .

    $default  reduce using rule 10 (stmt)


state 55

   14 stmt: FOR VAR '=' expr TO expr . DO stmt
   18 expr: expr . '+' expr
   19     | expr . '-' expr
   20     | expr . '*' expr
   21     | expr . '/' expr
   22     | expr . '>' expr
   23     | expr . '<' expr
   24     | expr . '_' expr

    DO   shift, and go to state 56
    '<'  shift, and go to state 28
    '>'  shift, and go to state 29
    '-'  shift, and go to state 30
    '+'  shift, and go to state 31
    '/'  shift, and go to state 32
    '*'  shift, and go to state 33
    '_'  shift, and go to state 35


state 56

    4 stmt: . expr '\n'
    5     | . PRINT expr
    6     | . PRINT STR
    7     | . PRINT_NEWLINE VAR
    8     | . READ VAR
    9     | . IF expr stmt ENDIF
   10     | . IF expr stmt ELSE stmt ENDIF
   11     | . WHILE expr stmt
   12     | . '\n'
   13     | . '{' stmts '}'
   14     | . FOR VAR '=' expr TO expr DO stmt
   14     | FOR VAR '=' expr TO expr DO . stmt
   15 expr: . INT
   16     | . VAR
   17     | . VAR '=' expr
   18     | . expr '+' expr
   19     | . expr '-' expr
   20     | . expr '*' expr
   21     | . expr '/' expr
   22     | . expr '>' expr
   23     | . expr '<' expr
   24     | . expr '_' expr
   25     | . '(' expr ')'

    WHILE          shift, and go to state 1
    READ           shift, and go to state 2
    PRINT          shift, and go to state 3
    IF             shift, and go to state 4
    PRINT_NEWLINE  shift, and go to state 5
    FOR            shift, and go to state 6
    INT            shift, and go to state 7
    VAR            shift, and go to state 8
    '\n'           shift, and go to state 9
    '{'            shift, and go to state 10
    '('            shift, and go to state 11

    stmt  go to state 57
    expr  go to state 15


state 57

   14 stmt: FOR VAR '=' expr TO expr DO stmt .

    $default  reduce using rule 14 (stmt)
