Grammar

    0 $accept: program $end

    1 program: stmts

    2 stmts: stmt
    3      | stmts stmt

    4 stmt: expr '\n'
    5     | PRINT expr
    6     | PRINT STR
    7     | READ VAR
    8     | IF expr stmt ENDIF
    9     | IF expr stmt ELSE stmt ENDIF
   10     | WHILE expr stmt
   11     | '\n'
   12     | '{' stmts '}'
   13     | FOR VAR '=' expr TO expr DO stmt
   14     | CASE WHEN expr THEN stmt DEFAULT stmt

   15 expr: INT
   16     | VAR
   17     | VAR '=' expr
   18     | expr '+' expr
   19     | expr '-' expr
   20     | expr '*' expr
   21     | expr '/' expr
   22     | '(' expr ')'


Terminals, with rules where they appear

$end (0) 0
'\n' (10) 4 11
'(' (40) 22
')' (41) 22
'*' (42) 20
'+' (43) 18
'-' (45) 19
'/' (47) 21
'=' (61) 13 17
'{' (123) 12
'}' (125) 12
error (256)
WHILE (258) 10
READ (259) 7
PRINT (260) 5 6
IF (261) 8 9
ELSE (262) 9
ENDIF (263) 8 9
FOR (264) 13
TO (265) 13
DO (266) 13
CASE (267) 14
WHEN (268) 14
THEN (269) 14
DEFAULT (270) 14
INT (271) 15
VAR (272) 7 13 16 17
STR (273) 6


Nonterminals, with rules where they appear

$accept (29)
    on left: 0
program (30)
    on left: 1, on right: 0
stmts (31)
    on left: 2 3, on right: 1 3 12
stmt (32)
    on left: 4 5 6 7 8 9 10 11 12 13 14, on right: 2 3 8 9 10 13 14
expr (33)
    on left: 15 16 17 18 19 20 21 22, on right: 4 5 8 9 10 13 14 17
    18 19 20 21 22


state 0

    0 $accept: . program $end
    1 program: . stmts
    2 stmts: . stmt
    3      | . stmts stmt
    4 stmt: . expr '\n'
    5     | . PRINT expr
    6     | . PRINT STR
    7     | . READ VAR
    8     | . IF expr stmt ENDIF
    9     | . IF expr stmt ELSE stmt ENDIF
   10     | . WHILE expr stmt
   11     | . '\n'
   12     | . '{' stmts '}'
   13     | . FOR VAR '=' expr TO expr DO stmt
   14     | . CASE WHEN expr THEN stmt DEFAULT stmt
   15 expr: . INT
   16     | . VAR
   17     | . VAR '=' expr
   18     | . expr '+' expr
   19     | . expr '-' expr
   20     | . expr '*' expr
   21     | . expr '/' expr
   22     | . '(' expr ')'

    WHILE  shift, and go to state 1
    READ   shift, and go to state 2
    PRINT  shift, and go to state 3
    IF     shift, and go to state 4
    FOR    shift, and go to state 5
    CASE   shift, and go to state 6
    INT    shift, and go to state 7
    VAR    shift, and go to state 8
    '\n'   shift, and go to state 9
    '{'    shift, and go to state 10
    '('    shift, and go to state 11

    program  go to state 12
    stmts    go to state 13
    stmt     go to state 14
    expr     go to state 15


state 1

   10 stmt: WHILE . expr stmt
   15 expr: . INT
   16     | . VAR
   17     | . VAR '=' expr
   18     | . expr '+' expr
   19     | . expr '-' expr
   20     | . expr '*' expr
   21     | . expr '/' expr
   22     | . '(' expr ')'

    INT  shift, and go to state 7
    VAR  shift, and go to state 8
    '('  shift, and go to state 11

    expr  go to state 16


state 2

    7 stmt: READ . VAR

    VAR  shift, and go to state 17


state 3

    5 stmt: PRINT . expr
    6     | PRINT . STR
   15 expr: . INT
   16     | . VAR
   17     | . VAR '=' expr
   18     | . expr '+' expr
   19     | . expr '-' expr
   20     | . expr '*' expr
   21     | . expr '/' expr
   22     | . '(' expr ')'

    INT  shift, and go to state 7
    VAR  shift, and go to state 8
    STR  shift, and go to state 18
    '('  shift, and go to state 11

    expr  go to state 19


state 4

    8 stmt: IF . expr stmt ENDIF
    9     | IF . expr stmt ELSE stmt ENDIF
   15 expr: . INT
   16     | . VAR
   17     | . VAR '=' expr
   18     | . expr '+' expr
   19     | . expr '-' expr
   20     | . expr '*' expr
   21     | . expr '/' expr
   22     | . '(' expr ')'

    INT  shift, and go to state 7
    VAR  shift, and go to state 8
    '('  shift, and go to state 11

    expr  go to state 20


state 5

   13 stmt: FOR . VAR '=' expr TO expr DO stmt

    VAR  shift, and go to state 21


state 6

   14 stmt: CASE . WHEN expr THEN stmt DEFAULT stmt

    WHEN  shift, and go to state 22


state 7

   15 expr: INT .

    $default  reduce using rule 15 (expr)


state 8

   16 expr: VAR .  [$end, WHILE, READ, PRINT, IF, ELSE, ENDIF, FOR, TO, DO, CASE, THEN, DEFAULT, INT, VAR, '-', '+', '/', '*', '\n', '{', '}', '(', ')']
   17     | VAR . '=' expr

    '='  shift, and go to state 23

    $default  reduce using rule 16 (expr)


state 9

   11 stmt: '\n' .

    $default  reduce using rule 11 (stmt)


state 10

    2 stmts: . stmt
    3      | . stmts stmt
    4 stmt: . expr '\n'
    5     | . PRINT expr
    6     | . PRINT STR
    7     | . READ VAR
    8     | . IF expr stmt ENDIF
    9     | . IF expr stmt ELSE stmt ENDIF
   10     | . WHILE expr stmt
   11     | . '\n'
   12     | . '{' stmts '}'
   12     | '{' . stmts '}'
   13     | . FOR VAR '=' expr TO expr DO stmt
   14     | . CASE WHEN expr THEN stmt DEFAULT stmt
   15 expr: . INT
   16     | . VAR
   17     | . VAR '=' expr
   18     | . expr '+' expr
   19     | . expr '-' expr
   20     | . expr '*' expr
   21     | . expr '/' expr
   22     | . '(' expr ')'

    WHILE  shift, and go to state 1
    READ   shift, and go to state 2
    PRINT  shift, and go to state 3
    IF     shift, and go to state 4
    FOR    shift, and go to state 5
    CASE   shift, and go to state 6
    INT    shift, and go to state 7
    VAR    shift, and go to state 8
    '\n'   shift, and go to state 9
    '{'    shift, and go to state 10
    '('    shift, and go to state 11

    stmts  go to state 24
    stmt   go to state 14
    expr   go to state 15


state 11

   15 expr: . INT
   16     | . VAR
   17     | . VAR '=' expr
   18     | . expr '+' expr
   19     | . expr '-' expr
   20     | . expr '*' expr
   21     | . expr '/' expr
   22     | . '(' expr ')'
   22     | '(' . expr ')'

    INT  shift, and go to state 7
    VAR  shift, and go to state 8
    '('  shift, and go to state 11

    expr  go to state 25


state 12

    0 $accept: program . $end

    $end  shift, and go to state 26


state 13

    1 program: stmts .  [$end]
    3 stmts: stmts . stmt
    4 stmt: . expr '\n'
    5     | . PRINT expr
    6     | . PRINT STR
    7     | . READ VAR
    8     | . IF expr stmt ENDIF
    9     | . IF expr stmt ELSE stmt ENDIF
   10     | . WHILE expr stmt
   11     | . '\n'
   12     | . '{' stmts '}'
   13     | . FOR VAR '=' expr TO expr DO stmt
   14     | . CASE WHEN expr THEN stmt DEFAULT stmt
   15 expr: . INT
   16     | . VAR
   17     | . VAR '=' expr
   18     | . expr '+' expr
   19     | . expr '-' expr
   20     | . expr '*' expr
   21     | . expr '/' expr
   22     | . '(' expr ')'

    WHILE  shift, and go to state 1
    READ   shift, and go to state 2
    PRINT  shift, and go to state 3
    IF     shift, and go to state 4
    FOR    shift, and go to state 5
    CASE   shift, and go to state 6
    INT    shift, and go to state 7
    VAR    shift, and go to state 8
    '\n'   shift, and go to state 9
    '{'    shift, and go to state 10
    '('    shift, and go to state 11

    $default  reduce using rule 1 (program)

    stmt  go to state 27
    expr  go to state 15


state 14

    2 stmts: stmt .

    $default  reduce using rule 2 (stmts)


state 15

    4 stmt: expr . '\n'
   18 expr: expr . '+' expr
   19     | expr . '-' expr
   20     | expr . '*' expr
   21     | expr . '/' expr

    '-'   shift, and go to state 28
    '+'   shift, and go to state 29
    '/'   shift, and go to state 30
    '*'   shift, and go to state 31
    '\n'  shift, and go to state 32


state 16

    4 stmt: . expr '\n'
    5     | . PRINT expr
    6     | . PRINT STR
    7     | . READ VAR
    8     | . IF expr stmt ENDIF
    9     | . IF expr stmt ELSE stmt ENDIF
   10     | . WHILE expr stmt
   10     | WHILE expr . stmt
   11     | . '\n'
   12     | . '{' stmts '}'
   13     | . FOR VAR '=' expr TO expr DO stmt
   14     | . CASE WHEN expr THEN stmt DEFAULT stmt
   15 expr: . INT
   16     | . VAR
   17     | . VAR '=' expr
   18     | . expr '+' expr
   18     | expr . '+' expr
   19     | . expr '-' expr
   19     | expr . '-' expr
   20     | . expr '*' expr
   20     | expr . '*' expr
   21     | . expr '/' expr
   21     | expr . '/' expr
   22     | . '(' expr ')'

    WHILE  shift, and go to state 1
    READ   shift, and go to state 2
    PRINT  shift, and go to state 3
    IF     shift, and go to state 4
    FOR    shift, and go to state 5
    CASE   shift, and go to state 6
    INT    shift, and go to state 7
    VAR    shift, and go to state 8
    '-'    shift, and go to state 28
    '+'    shift, and go to state 29
    '/'    shift, and go to state 30
    '*'    shift, and go to state 31
    '\n'   shift, and go to state 9
    '{'    shift, and go to state 10
    '('    shift, and go to state 11

    stmt  go to state 33
    expr  go to state 15


state 17

    7 stmt: READ VAR .

    $default  reduce using rule 7 (stmt)


state 18

    6 stmt: PRINT STR .

    $default  reduce using rule 6 (stmt)


state 19

    5 stmt: PRINT expr .  [$end, WHILE, READ, PRINT, IF, ELSE, ENDIF, FOR, CASE, DEFAULT, INT, VAR, '\n', '{', '}', '(']
   18 expr: expr . '+' expr
   19     | expr . '-' expr
   20     | expr . '*' expr
   21     | expr . '/' expr

    '-'  shift, and go to state 28
    '+'  shift, and go to state 29
    '/'  shift, and go to state 30
    '*'  shift, and go to state 31

    $default  reduce using rule 5 (stmt)


state 20

    4 stmt: . expr '\n'
    5     | . PRINT expr
    6     | . PRINT STR
    7     | . READ VAR
    8     | . IF expr stmt ENDIF
    8     | IF expr . stmt ENDIF
    9     | . IF expr stmt ELSE stmt ENDIF
    9     | IF expr . stmt ELSE stmt ENDIF
   10     | . WHILE expr stmt
   11     | . '\n'
   12     | . '{' stmts '}'
   13     | . FOR VAR '=' expr TO expr DO stmt
   14     | . CASE WHEN expr THEN stmt DEFAULT stmt
   15 expr: . INT
   16     | . VAR
   17     | . VAR '=' expr
   18     | . expr '+' expr
   18     | expr . '+' expr
   19     | . expr '-' expr
   19     | expr . '-' expr
   20     | . expr '*' expr
   20     | expr . '*' expr
   21     | . expr '/' expr
   21     | expr . '/' expr
   22     | . '(' expr ')'

    WHILE  shift, and go to state 1
    READ   shift, and go to state 2
    PRINT  shift, and go to state 3
    IF     shift, and go to state 4
    FOR    shift, and go to state 5
    CASE   shift, and go to state 6
    INT    shift, and go to state 7
    VAR    shift, and go to state 8
    '-'    shift, and go to state 28
    '+'    shift, and go to state 29
    '/'    shift, and go to state 30
    '*'    shift, and go to state 31
    '\n'   shift, and go to state 9
    '{'    shift, and go to state 10
    '('    shift, and go to state 11

    stmt  go to state 34
    expr  go to state 15


state 21

   13 stmt: FOR VAR . '=' expr TO expr DO stmt

    '='  shift, and go to state 35


state 22

   14 stmt: CASE WHEN . expr THEN stmt DEFAULT stmt
   15 expr: . INT
   16     | . VAR
   17     | . VAR '=' expr
   18     | . expr '+' expr
   19     | . expr '-' expr
   20     | . expr '*' expr
   21     | . expr '/' expr
   22     | . '(' expr ')'

    INT  shift, and go to state 7
    VAR  shift, and go to state 8
    '('  shift, and go to state 11

    expr  go to state 36


state 23

   15 expr: . INT
   16     | . VAR
   17     | . VAR '=' expr
   17     | VAR '=' . expr
   18     | . expr '+' expr
   19     | . expr '-' expr
   20     | . expr '*' expr
   21     | . expr '/' expr
   22     | . '(' expr ')'

    INT  shift, and go to state 7
    VAR  shift, and go to state 8
    '('  shift, and go to state 11

    expr  go to state 37


state 24

    3 stmts: stmts . stmt
    4 stmt: . expr '\n'
    5     | . PRINT expr
    6     | . PRINT STR
    7     | . READ VAR
    8     | . IF expr stmt ENDIF
    9     | . IF expr stmt ELSE stmt ENDIF
   10     | . WHILE expr stmt
   11     | . '\n'
   12     | . '{' stmts '}'
   12     | '{' stmts . '}'
   13     | . FOR VAR '=' expr TO expr DO stmt
   14     | . CASE WHEN expr THEN stmt DEFAULT stmt
   15 expr: . INT
   16     | . VAR
   17     | . VAR '=' expr
   18     | . expr '+' expr
   19     | . expr '-' expr
   20     | . expr '*' expr
   21     | . expr '/' expr
   22     | . '(' expr ')'

    WHILE  shift, and go to state 1
    READ   shift, and go to state 2
    PRINT  shift, and go to state 3
    IF     shift, and go to state 4
    FOR    shift, and go to state 5
    CASE   shift, and go to state 6
    INT    shift, and go to state 7
    VAR    shift, and go to state 8
    '\n'   shift, and go to state 9
    '{'    shift, and go to state 10
    '}'    shift, and go to state 38
    '('    shift, and go to state 11

    stmt  go to state 27
    expr  go to state 15


state 25

   18 expr: expr . '+' expr
   19     | expr . '-' expr
   20     | expr . '*' expr
   21     | expr . '/' expr
   22     | '(' expr . ')'

    '-'  shift, and go to state 28
    '+'  shift, and go to state 29
    '/'  shift, and go to state 30
    '*'  shift, and go to state 31
    ')'  shift, and go to state 39


state 26

    0 $accept: program $end .

    $default  accept


state 27

    3 stmts: stmts stmt .

    $default  reduce using rule 3 (stmts)


state 28

   15 expr: . INT
   16     | . VAR
   17     | . VAR '=' expr
   18     | . expr '+' expr
   19     | . expr '-' expr
   19     | expr '-' . expr
   20     | . expr '*' expr
   21     | . expr '/' expr
   22     | . '(' expr ')'

    INT  shift, and go to state 7
    VAR  shift, and go to state 8
    '('  shift, and go to state 11

    expr  go to state 40


state 29

   15 expr: . INT
   16     | . VAR
   17     | . VAR '=' expr
   18     | . expr '+' expr
   18     | expr '+' . expr
   19     | . expr '-' expr
   20     | . expr '*' expr
   21     | . expr '/' expr
   22     | . '(' expr ')'

    INT  shift, and go to state 7
    VAR  shift, and go to state 8
    '('  shift, and go to state 11

    expr  go to state 41


state 30

   15 expr: . INT
   16     | . VAR
   17     | . VAR '=' expr
   18     | . expr '+' expr
   19     | . expr '-' expr
   20     | . expr '*' expr
   21     | . expr '/' expr
   21     | expr '/' . expr
   22     | . '(' expr ')'

    INT  shift, and go to state 7
    VAR  shift, and go to state 8
    '('  shift, and go to state 11

    expr  go to state 42


state 31

   15 expr: . INT
   16     | . VAR
   17     | . VAR '=' expr
   18     | . expr '+' expr
   19     | . expr '-' expr
   20     | . expr '*' expr
   20     | expr '*' . expr
   21     | . expr '/' expr
   22     | . '(' expr ')'

    INT  shift, and go to state 7
    VAR  shift, and go to state 8
    '('  shift, and go to state 11

    expr  go to state 43


state 32

    4 stmt: expr '\n' .

    $default  reduce using rule 4 (stmt)


state 33

   10 stmt: WHILE expr stmt .

    $default  reduce using rule 10 (stmt)


state 34

    8 stmt: IF expr stmt . ENDIF
    9     | IF expr stmt . ELSE stmt ENDIF

    ELSE   shift, and go to state 44
    ENDIF  shift, and go to state 45


state 35

   13 stmt: FOR VAR '=' . expr TO expr DO stmt
   15 expr: . INT
   16     | . VAR
   17     | . VAR '=' expr
   18     | . expr '+' expr
   19     | . expr '-' expr
   20     | . expr '*' expr
   21     | . expr '/' expr
   22     | . '(' expr ')'

    INT  shift, and go to state 7
    VAR  shift, and go to state 8
    '('  shift, and go to state 11

    expr  go to state 46


state 36

   14 stmt: CASE WHEN expr . THEN stmt DEFAULT stmt
   18 expr: expr . '+' expr
   19     | expr . '-' expr
   20     | expr . '*' expr
   21     | expr . '/' expr

    THEN  shift, and go to state 47
    '-'   shift, and go to state 28
    '+'   shift, and go to state 29
    '/'   shift, and go to state 30
    '*'   shift, and go to state 31


state 37

   17 expr: VAR '=' expr .  [$end, WHILE, READ, PRINT, IF, ELSE, ENDIF, FOR, TO, DO, CASE, THEN, DEFAULT, INT, VAR, '\n', '{', '}', '(', ')']
   18     | expr . '+' expr
   19     | expr . '-' expr
   20     | expr . '*' expr
   21     | expr . '/' expr

    '-'  shift, and go to state 28
    '+'  shift, and go to state 29
    '/'  shift, and go to state 30
    '*'  shift, and go to state 31

    $default  reduce using rule 17 (expr)

    Conflict between rule 17 and token '-' resolved as shift ('=' < '-').
    Conflict between rule 17 and token '+' resolved as shift ('=' < '+').
    Conflict between rule 17 and token '/' resolved as shift ('=' < '/').
    Conflict between rule 17 and token '*' resolved as shift ('=' < '*').


state 38

   12 stmt: '{' stmts '}' .

    $default  reduce using rule 12 (stmt)


state 39

   22 expr: '(' expr ')' .

    $default  reduce using rule 22 (expr)


state 40

   18 expr: expr . '+' expr
   19     | expr . '-' expr  [$end, WHILE, READ, PRINT, IF, ELSE, ENDIF, FOR, TO, DO, CASE, THEN, DEFAULT, INT, VAR, '-', '+', '\n', '{', '}', '(', ')']
   19     | expr '-' expr .  [$end, WHILE, READ, PRINT, IF, ELSE, ENDIF, FOR, TO, DO, CASE, THEN, DEFAULT, INT, VAR, '-', '+', '\n', '{', '}', '(', ')']
   20     | expr . '*' expr
   21     | expr . '/' expr

    '/'  shift, and go to state 30
    '*'  shift, and go to state 31

    $default  reduce using rule 19 (expr)

    Conflict between rule 19 and token '-' resolved as reduce (%left '-').
    Conflict between rule 19 and token '+' resolved as reduce (%left '+').
    Conflict between rule 19 and token '/' resolved as shift ('-' < '/').
    Conflict between rule 19 and token '*' resolved as shift ('-' < '*').


state 41

   18 expr: expr . '+' expr  [$end, WHILE, READ, PRINT, IF, ELSE, ENDIF, FOR, TO, DO, CASE, THEN, DEFAULT, INT, VAR, '-', '+', '\n', '{', '}', '(', ')']
   18     | expr '+' expr .  [$end, WHILE, READ, PRINT, IF, ELSE, ENDIF, FOR, TO, DO, CASE, THEN, DEFAULT, INT, VAR, '-', '+', '\n', '{', '}', '(', ')']
   19     | expr . '-' expr
   20     | expr . '*' expr
   21     | expr . '/' expr

    '/'  shift, and go to state 30
    '*'  shift, and go to state 31

    $default  reduce using rule 18 (expr)

    Conflict between rule 18 and token '-' resolved as reduce (%left '-').
    Conflict between rule 18 and token '+' resolved as reduce (%left '+').
    Conflict between rule 18 and token '/' resolved as shift ('+' < '/').
    Conflict between rule 18 and token '*' resolved as shift ('+' < '*').


state 42

   18 expr: expr . '+' expr
   19     | expr . '-' expr
   20     | expr . '*' expr
   21     | expr . '/' expr  [$end, WHILE, READ, PRINT, IF, ELSE, ENDIF, FOR, TO, DO, CASE, THEN, DEFAULT, INT, VAR, '-', '+', '/', '*', '\n', '{', '}', '(', ')']
   21     | expr '/' expr .  [$end, WHILE, READ, PRINT, IF, ELSE, ENDIF, FOR, TO, DO, CASE, THEN, DEFAULT, INT, VAR, '-', '+', '/', '*', '\n', '{', '}', '(', ')']

    $default  reduce using rule 21 (expr)

    Conflict between rule 21 and token '-' resolved as reduce ('-' < '/').
    Conflict between rule 21 and token '+' resolved as reduce ('+' < '/').
    Conflict between rule 21 and token '/' resolved as reduce (%left '/').
    Conflict between rule 21 and token '*' resolved as reduce (%left '*').


state 43

   18 expr: expr . '+' expr
   19     | expr . '-' expr
   20     | expr . '*' expr  [$end, WHILE, READ, PRINT, IF, ELSE, ENDIF, FOR, TO, DO, CASE, THEN, DEFAULT, INT, VAR, '-', '+', '/', '*', '\n', '{', '}', '(', ')']
   20     | expr '*' expr .  [$end, WHILE, READ, PRINT, IF, ELSE, ENDIF, FOR, TO, DO, CASE, THEN, DEFAULT, INT, VAR, '-', '+', '/', '*', '\n', '{', '}', '(', ')']
   21     | expr . '/' expr

    $default  reduce using rule 20 (expr)

    Conflict between rule 20 and token '-' resolved as reduce ('-' < '*').
    Conflict between rule 20 and token '+' resolved as reduce ('+' < '*').
    Conflict between rule 20 and token '/' resolved as reduce (%left '/').
    Conflict between rule 20 and token '*' resolved as reduce (%left '*').


state 44

    4 stmt: . expr '\n'
    5     | . PRINT expr
    6     | . PRINT STR
    7     | . READ VAR
    8     | . IF expr stmt ENDIF
    9     | . IF expr stmt ELSE stmt ENDIF
    9     | IF expr stmt ELSE . stmt ENDIF
   10     | . WHILE expr stmt
   11     | . '\n'
   12     | . '{' stmts '}'
   13     | . FOR VAR '=' expr TO expr DO stmt
   14     | . CASE WHEN expr THEN stmt DEFAULT stmt
   15 expr: . INT
   16     | . VAR
   17     | . VAR '=' expr
   18     | . expr '+' expr
   19     | . expr '-' expr
   20     | . expr '*' expr
   21     | . expr '/' expr
   22     | . '(' expr ')'

    WHILE  shift, and go to state 1
    READ   shift, and go to state 2
    PRINT  shift, and go to state 3
    IF     shift, and go to state 4
    FOR    shift, and go to state 5
    CASE   shift, and go to state 6
    INT    shift, and go to state 7
    VAR    shift, and go to state 8
    '\n'   shift, and go to state 9
    '{'    shift, and go to state 10
    '('    shift, and go to state 11

    stmt  go to state 48
    expr  go to state 15


state 45

    8 stmt: IF expr stmt ENDIF .

    $default  reduce using rule 8 (stmt)


state 46

   13 stmt: FOR VAR '=' expr . TO expr DO stmt
   18 expr: expr . '+' expr
   19     | expr . '-' expr
   20     | expr . '*' expr
   21     | expr . '/' expr

    TO   shift, and go to state 49
    '-'  shift, and go to state 28
    '+'  shift, and go to state 29
    '/'  shift, and go to state 30
    '*'  shift, and go to state 31


state 47

    4 stmt: . expr '\n'
    5     | . PRINT expr
    6     | . PRINT STR
    7     | . READ VAR
    8     | . IF expr stmt ENDIF
    9     | . IF expr stmt ELSE stmt ENDIF
   10     | . WHILE expr stmt
   11     | . '\n'
   12     | . '{' stmts '}'
   13     | . FOR VAR '=' expr TO expr DO stmt
   14     | . CASE WHEN expr THEN stmt DEFAULT stmt
   14     | CASE WHEN expr THEN . stmt DEFAULT stmt
   15 expr: . INT
   16     | . VAR
   17     | . VAR '=' expr
   18     | . expr '+' expr
   19     | . expr '-' expr
   20     | . expr '*' expr
   21     | . expr '/' expr
   22     | . '(' expr ')'

    WHILE  shift, and go to state 1
    READ   shift, and go to state 2
    PRINT  shift, and go to state 3
    IF     shift, and go to state 4
    FOR    shift, and go to state 5
    CASE   shift, and go to state 6
    INT    shift, and go to state 7
    VAR    shift, and go to state 8
    '\n'   shift, and go to state 9
    '{'    shift, and go to state 10
    '('    shift, and go to state 11

    stmt  go to state 50
    expr  go to state 15


state 48

    9 stmt: IF expr stmt ELSE stmt . ENDIF

    ENDIF  shift, and go to state 51


state 49

   13 stmt: FOR VAR '=' expr TO . expr DO stmt
   15 expr: . INT
   16     | . VAR
   17     | . VAR '=' expr
   18     | . expr '+' expr
   19     | . expr '-' expr
   20     | . expr '*' expr
   21     | . expr '/' expr
   22     | . '(' expr ')'

    INT  shift, and go to state 7
    VAR  shift, and go to state 8
    '('  shift, and go to state 11

    expr  go to state 52


state 50

   14 stmt: CASE WHEN expr THEN stmt . DEFAULT stmt

    DEFAULT  shift, and go to state 53


state 51

    9 stmt: IF expr stmt ELSE stmt ENDIF .

    $default  reduce using rule 9 (stmt)


state 52

   13 stmt: FOR VAR '=' expr TO expr . DO stmt
   18 expr: expr . '+' expr
   19     | expr . '-' expr
   20     | expr . '*' expr
   21     | expr . '/' expr

    DO   shift, and go to state 54
    '-'  shift, and go to state 28
    '+'  shift, and go to state 29
    '/'  shift, and go to state 30
    '*'  shift, and go to state 31


state 53

    4 stmt: . expr '\n'
    5     | . PRINT expr
    6     | . PRINT STR
    7     | . READ VAR
    8     | . IF expr stmt ENDIF
    9     | . IF expr stmt ELSE stmt ENDIF
   10     | . WHILE expr stmt
   11     | . '\n'
   12     | . '{' stmts '}'
   13     | . FOR VAR '=' expr TO expr DO stmt
   14     | . CASE WHEN expr THEN stmt DEFAULT stmt
   14     | CASE WHEN expr THEN stmt DEFAULT . stmt
   15 expr: . INT
   16     | . VAR
   17     | . VAR '=' expr
   18     | . expr '+' expr
   19     | . expr '-' expr
   20     | . expr '*' expr
   21     | . expr '/' expr
   22     | . '(' expr ')'

    WHILE  shift, and go to state 1
    READ   shift, and go to state 2
    PRINT  shift, and go to state 3
    IF     shift, and go to state 4
    FOR    shift, and go to state 5
    CASE   shift, and go to state 6
    INT    shift, and go to state 7
    VAR    shift, and go to state 8
    '\n'   shift, and go to state 9
    '{'    shift, and go to state 10
    '('    shift, and go to state 11

    stmt  go to state 55
    expr  go to state 15


state 54

    4 stmt: . expr '\n'
    5     | . PRINT expr
    6     | . PRINT STR
    7     | . READ VAR
    8     | . IF expr stmt ENDIF
    9     | . IF expr stmt ELSE stmt ENDIF
   10     | . WHILE expr stmt
   11     | . '\n'
   12     | . '{' stmts '}'
   13     | . FOR VAR '=' expr TO expr DO stmt
   13     | FOR VAR '=' expr TO expr DO . stmt
   14     | . CASE WHEN expr THEN stmt DEFAULT stmt
   15 expr: . INT
   16     | . VAR
   17     | . VAR '=' expr
   18     | . expr '+' expr
   19     | . expr '-' expr
   20     | . expr '*' expr
   21     | . expr '/' expr
   22     | . '(' expr ')'

    WHILE  shift, and go to state 1
    READ   shift, and go to state 2
    PRINT  shift, and go to state 3
    IF     shift, and go to state 4
    FOR    shift, and go to state 5
    CASE   shift, and go to state 6
    INT    shift, and go to state 7
    VAR    shift, and go to state 8
    '\n'   shift, and go to state 9
    '{'    shift, and go to state 10
    '('    shift, and go to state 11

    stmt  go to state 56
    expr  go to state 15


state 55

   14 stmt: CASE WHEN expr THEN stmt DEFAULT stmt .

    $default  reduce using rule 14 (stmt)


state 56

   13 stmt: FOR VAR '=' expr TO expr DO stmt .

    $default  reduce using rule 13 (stmt)
