Grammar

    0 $accept: program $end

    1 program: /* empty */
    2        | program line

    3 line: expr '\n'
    4     | '\n'

    5 expr: INT
    6     | expr expr '+'
    7     | expr expr '-'
    8     | expr expr '*'
    9     | expr expr '/'


Terminals, with rules where they appear

$end (0) 0
'\n' (10) 3 4
'*' (42) 8
'+' (43) 6
'-' (45) 7
'/' (47) 9
error (256)
INT (258) 5


Nonterminals, with rules where they appear

$accept (9)
    on left: 0
program (10)
    on left: 1 2, on right: 0 2
line (11)
    on left: 3 4, on right: 2
expr (12)
    on left: 5 6 7 8 9, on right: 3 6 7 8 9


state 0

    0 $accept: . program $end

    $default  reduce using rule 1 (program)

    program  go to state 1


state 1

    0 $accept: program . $end
    2 program: program . line

    $end  shift, and go to state 2
    INT   shift, and go to state 3
    '\n'  shift, and go to state 4

    line  go to state 5
    expr  go to state 6


state 2

    0 $accept: program $end .

    $default  accept


state 3

    5 expr: INT .

    $default  reduce using rule 5 (expr)


state 4

    4 line: '\n' .

    $default  reduce using rule 4 (line)


state 5

    2 program: program line .

    $default  reduce using rule 2 (program)


state 6

    3 line: expr . '\n'
    6 expr: expr . expr '+'
    7     | expr . expr '-'
    8     | expr . expr '*'
    9     | expr . expr '/'

    INT   shift, and go to state 3
    '\n'  shift, and go to state 7

    expr  go to state 8


state 7

    3 line: expr '\n' .

    $default  reduce using rule 3 (line)


state 8

    6 expr: expr . expr '+'
    6     | expr expr . '+'
    7     | expr . expr '-'
    7     | expr expr . '-'
    8     | expr . expr '*'
    8     | expr expr . '*'
    9     | expr . expr '/'
    9     | expr expr . '/'

    INT  shift, and go to state 3
    '+'  shift, and go to state 9
    '-'  shift, and go to state 10
    '*'  shift, and go to state 11
    '/'  shift, and go to state 12

    expr  go to state 8


state 9

    6 expr: expr expr '+' .

    $default  reduce using rule 6 (expr)


state 10

    7 expr: expr expr '-' .

    $default  reduce using rule 7 (expr)


state 11

    8 expr: expr expr '*' .

    $default  reduce using rule 8 (expr)


state 12

    9 expr: expr expr '/' .

    $default  reduce using rule 9 (expr)
